    5
 
Ti     0.0000000000   0.0000000000   0.0000000000
Cl     1.2487780000   1.2487780000  -1.2487780000
Cl     1.2487780000  -1.2487780000   1.2487780000
Cl    -1.2487780000   1.2487780000   1.2487780000
Cl    -1.2487780000  -1.2487780000  -1.2487780000
