  Cartesian coordinates in XYZ format (Angstrom)
  ----------------------------------------------

    2

Cu     0.0000000000   0.0000000000  -0.0230135093
H      0.0000000000   0.0000000000   1.4369864907
